%FSLAX45Y45*%
G04 Gerber Fmt 4.5, Leading zero omitted, Abs format (unit mm)*
G04 Created by KiCad (PCBNEW (5.1.12)-1) date 2022-07-31 11:56:51*
%MOMM*%
%LPD*%
G01*
G04 APERTURE LIST*
%TA.AperFunction,Profile*%
%ADD10C,0.100000*%
%TD*%
%ADD11C,0.200000*%
%ADD12C,0.300000*%
G04 APERTURE END LIST*
D10*
X10541000Y-3977640D02*
X15453360Y-3977640D01*
X10541000Y-4737100D02*
X10541000Y-3977640D01*
X15453360Y-4737100D02*
X10541000Y-4737100D01*
X15453360Y-3977640D02*
X15453360Y-4737100D01*
X19500000Y-3600000D02*
X10000000Y-3600000D01*
X19500000Y-13000000D02*
X19500000Y-3600000D01*
X10000000Y-13000000D02*
X19500000Y-13000000D01*
X10000000Y-3600000D02*
X10000000Y-13000000D01*
D11*
D12*
X10281428Y-13470714D02*
X10281428Y-13170714D01*
X10352857Y-13170714D01*
X10395714Y-13185000D01*
X10424286Y-13213571D01*
X10438571Y-13242143D01*
X10452857Y-13299286D01*
X10452857Y-13342143D01*
X10438571Y-13399286D01*
X10424286Y-13427857D01*
X10395714Y-13456429D01*
X10352857Y-13470714D01*
X10281428Y-13470714D01*
X10581428Y-13470714D02*
X10581428Y-13270714D01*
X10581428Y-13327857D02*
X10595714Y-13299286D01*
X10610000Y-13285000D01*
X10638571Y-13270714D01*
X10667143Y-13270714D01*
X10767143Y-13470714D02*
X10767143Y-13270714D01*
X10767143Y-13170714D02*
X10752857Y-13185000D01*
X10767143Y-13199286D01*
X10781428Y-13185000D01*
X10767143Y-13170714D01*
X10767143Y-13199286D01*
X10952857Y-13470714D02*
X10924286Y-13456429D01*
X10910000Y-13427857D01*
X10910000Y-13170714D01*
X11110000Y-13470714D02*
X11081428Y-13456429D01*
X11067143Y-13427857D01*
X11067143Y-13170714D01*
X11452857Y-13470714D02*
X11452857Y-13170714D01*
X11552857Y-13385000D01*
X11652857Y-13170714D01*
X11652857Y-13470714D01*
X11924286Y-13470714D02*
X11924286Y-13313571D01*
X11910000Y-13285000D01*
X11881428Y-13270714D01*
X11824286Y-13270714D01*
X11795714Y-13285000D01*
X11924286Y-13456429D02*
X11895714Y-13470714D01*
X11824286Y-13470714D01*
X11795714Y-13456429D01*
X11781428Y-13427857D01*
X11781428Y-13399286D01*
X11795714Y-13370714D01*
X11824286Y-13356429D01*
X11895714Y-13356429D01*
X11924286Y-13342143D01*
X12067143Y-13270714D02*
X12067143Y-13570714D01*
X12067143Y-13285000D02*
X12095714Y-13270714D01*
X12152857Y-13270714D01*
X12181428Y-13285000D01*
X12195714Y-13299286D01*
X12210000Y-13327857D01*
X12210000Y-13413571D01*
X12195714Y-13442143D01*
X12181428Y-13456429D01*
X12152857Y-13470714D01*
X12095714Y-13470714D01*
X12067143Y-13456429D01*
X12338571Y-13442143D02*
X12352857Y-13456429D01*
X12338571Y-13470714D01*
X12324286Y-13456429D01*
X12338571Y-13442143D01*
X12338571Y-13470714D01*
X12338571Y-13285000D02*
X12352857Y-13299286D01*
X12338571Y-13313571D01*
X12324286Y-13299286D01*
X12338571Y-13285000D01*
X12338571Y-13313571D01*
M02*
