M48
; DRILL file {KiCad (5.1.12)-1} date 07/31/22 11:56:50
; FORMAT={-:-/ absolute / metric / decimal}
; #@! TF.CreationDate,2022-07-31T11:56:50-05:00
; #@! TF.GenerationSoftware,Kicad,Pcbnew,(5.1.12)-1
; #@! TF.FileFunction,NonPlated,1,4,NPTH
FMAT,2
METRIC
%
G90
G05
T0
M30
