EESchema Schematic File Version 4
EELAYER 30 0
EELAYER END
$Descr A4 11693 8268
encoding utf-8
Sheet 1 1
Title "ILI9488 Breakout Board"
Date "2022-07-31"
Rev "2.1"
Comp ""
Comment1 "Braden Aasand"
Comment2 ""
Comment3 ""
Comment4 ""
$EndDescr
$Comp
L power:GND #PWR0101
U 1 1 5EDCC424
P 7150 6150
AR Path="/5EDCC424" Ref="#PWR0101"  Part="1" 
AR Path="/5C3D0F24/5EDCC424" Ref="#PWR?"  Part="1" 
AR Path="/5EDC6366/5EDCC424" Ref="#PWR?"  Part="1" 
F 0 "#PWR0101" H 7150 5900 50  0001 C CNN
F 1 "GND" H 7155 5977 50  0000 C CNN
F 2 "" H 7150 6150 50  0001 C CNN
F 3 "" H 7150 6150 50  0001 C CNN
	1    7150 6150
	1    0    0    -1  
$EndComp
Wire Wire Line
	7150 6150 7150 6000
Wire Wire Line
	7150 6000 7100 6000
Wire Wire Line
	7200 6000 7200 6150
Wire Wire Line
	7200 6150 7150 6150
Connection ~ 7150 6150
$Comp
L ILI9488_Breakout-rescue:USB_B_Micro-Connector-ILI9488_Breakout-rescue J1
U 1 1 5EDCC437
P 7200 5600
F 0 "J1" H 7255 6067 50  0000 C CNN
F 1 "USB_B_Micro" H 7255 5976 50  0000 C CNN
F 2 "MICRO-USB-B-AMPHENOL:USB_MicroB" H 7350 5550 50  0001 C CNN
F 3 "~" H 7350 5550 50  0001 C CNN
	1    7200 5600
	1    0    0    -1  
$EndComp
$Comp
L Device:C_Small C4
U 1 1 5EDCC43E
P 8300 5700
AR Path="/5EDCC43E" Ref="C4"  Part="1" 
AR Path="/5C3D0F24/5EDCC43E" Ref="C?"  Part="1" 
AR Path="/5EDC6366/5EDCC43E" Ref="C?"  Part="1" 
F 0 "C4" H 8400 5700 50  0000 L CNN
F 1 "1uF" H 8350 5600 50  0000 L CNN
F 2 "Capacitor_SMD:C_0402_1005Metric" H 8300 5700 50  0001 C CNN
F 3 "~" H 8300 5700 50  0001 C CNN
	1    8300 5700
	1    0    0    -1  
$EndComp
$Comp
L Device:C_Small C3
U 1 1 5EDCC445
P 7850 5700
AR Path="/5EDCC445" Ref="C3"  Part="1" 
AR Path="/5C3D0F24/5EDCC445" Ref="C?"  Part="1" 
AR Path="/5EDC6366/5EDCC445" Ref="C?"  Part="1" 
F 0 "C3" H 7942 5746 50  0000 L CNN
F 1 "10uF" H 7942 5655 50  0000 L CNN
F 2 "Capacitor_SMD:C_0603_1608Metric" H 7850 5700 50  0001 C CNN
F 3 "~" H 7850 5700 50  0001 C CNN
	1    7850 5700
	1    0    0    -1  
$EndComp
Wire Wire Line
	8300 5600 8300 5400
Wire Wire Line
	8300 5800 8300 6050
Wire Wire Line
	7850 5600 7850 5400
Wire Wire Line
	7850 5800 7850 6050
Wire Wire Line
	7850 6050 8300 6050
$Comp
L Device:C_Small C6
U 1 1 5EDCC452
P 10050 5700
AR Path="/5EDCC452" Ref="C6"  Part="1" 
AR Path="/5C3D0F24/5EDCC452" Ref="C?"  Part="1" 
AR Path="/5EDC6366/5EDCC452" Ref="C?"  Part="1" 
F 0 "C6" H 9850 5700 50  0000 L CNN
F 1 "1uF" H 9850 5600 50  0000 L CNN
F 2 "Capacitor_SMD:C_0402_1005Metric" H 10050 5700 50  0001 C CNN
F 3 "~" H 10050 5700 50  0001 C CNN
	1    10050 5700
	1    0    0    -1  
$EndComp
$Comp
L Device:C_Small C7
U 1 1 5EDCC459
P 10400 5700
AR Path="/5EDCC459" Ref="C7"  Part="1" 
AR Path="/5C3D0F24/5EDCC459" Ref="C?"  Part="1" 
AR Path="/5EDC6366/5EDCC459" Ref="C?"  Part="1" 
F 0 "C7" H 10492 5746 50  0000 L CNN
F 1 "10uF" H 10492 5655 50  0000 L CNN
F 2 "Capacitor_SMD:C_0603_1608Metric" H 10400 5700 50  0001 C CNN
F 3 "~" H 10400 5700 50  0001 C CNN
	1    10400 5700
	1    0    0    -1  
$EndComp
Wire Wire Line
	10050 5600 10050 5400
Wire Wire Line
	10050 5400 10400 5400
Wire Wire Line
	10400 5600 10400 5400
Connection ~ 10400 5400
Wire Wire Line
	10400 5400 10550 5400
$Comp
L power:GND #PWR0103
U 1 1 5EDCC465
P 10050 6000
F 0 "#PWR0103" H 10050 5750 50  0001 C CNN
F 1 "GND" H 10055 5827 50  0000 C CNN
F 2 "" H 10050 6000 50  0001 C CNN
F 3 "" H 10050 6000 50  0001 C CNN
	1    10050 6000
	1    0    0    -1  
$EndComp
Wire Wire Line
	10050 5900 10050 5800
Wire Wire Line
	10050 5900 10400 5900
Wire Wire Line
	10400 5900 10400 5800
Connection ~ 10050 5900
Wire Wire Line
	10050 5900 10050 6000
Connection ~ 8300 6050
$Comp
L power:GND #PWR0104
U 1 1 5EDCC471
P 8300 6150
F 0 "#PWR0104" H 8300 5900 50  0001 C CNN
F 1 "GND" H 8305 5977 50  0000 C CNN
F 2 "" H 8300 6150 50  0001 C CNN
F 3 "" H 8300 6150 50  0001 C CNN
	1    8300 6150
	1    0    0    -1  
$EndComp
Wire Wire Line
	8300 6050 8300 6150
Wire Wire Line
	8300 5400 8500 5400
Connection ~ 8300 5400
Wire Wire Line
	8800 5500 8700 5500
Wire Wire Line
	8700 5500 8700 5400
Connection ~ 8700 5400
Wire Wire Line
	8700 5400 8800 5400
Wire Wire Line
	9400 5400 10050 5400
Connection ~ 10050 5400
$Comp
L power:GND #PWR0105
U 1 1 5EDCC489
P 9100 5900
F 0 "#PWR0105" H 9100 5650 50  0001 C CNN
F 1 "GND" H 9105 5727 50  0000 C CNN
F 2 "" H 9100 5900 50  0001 C CNN
F 3 "" H 9100 5900 50  0001 C CNN
	1    9100 5900
	1    0    0    -1  
$EndComp
Wire Wire Line
	9100 5800 9100 5900
$Comp
L Device:C_Small C5
U 1 1 5EDCC490
P 9650 5700
AR Path="/5EDCC490" Ref="C5"  Part="1" 
AR Path="/5C3D0F24/5EDCC490" Ref="C?"  Part="1" 
AR Path="/5EDC6366/5EDCC490" Ref="C?"  Part="1" 
F 0 "C5" H 9450 5700 50  0000 L CNN
F 1 "1uF" H 9450 5600 50  0000 L CNN
F 2 "Capacitor_SMD:C_0402_1005Metric" H 9650 5700 50  0001 C CNN
F 3 "~" H 9650 5700 50  0001 C CNN
	1    9650 5700
	1    0    0    -1  
$EndComp
Wire Wire Line
	9400 5500 9650 5500
Wire Wire Line
	9650 5500 9650 5600
Wire Wire Line
	9650 5800 9650 5900
Wire Wire Line
	9650 5900 10050 5900
$Comp
L power:VDD #PWR0106
U 1 1 5EDCC49B
P 10550 5400
F 0 "#PWR0106" H 10550 5250 50  0001 C CNN
F 1 "VDD" H 10567 5573 50  0000 C CNN
F 2 "" H 10550 5400 50  0001 C CNN
F 3 "" H 10550 5400 50  0001 C CNN
	1    10550 5400
	1    0    0    -1  
$EndComp
$Comp
L power:VBUS #PWR0107
U 1 1 5EDCCDA8
P 8500 5400
F 0 "#PWR0107" H 8500 5250 50  0001 C CNN
F 1 "VBUS" H 8515 5573 50  0000 C CNN
F 2 "" H 8500 5400 50  0001 C CNN
F 3 "" H 8500 5400 50  0001 C CNN
	1    8500 5400
	1    0    0    -1  
$EndComp
$Comp
L power:VBUS #PWR0108
U 1 1 5EDCCDDC
P 2900 4050
F 0 "#PWR0108" H 2900 3900 50  0001 C CNN
F 1 "VBUS" H 2915 4223 50  0000 C CNN
F 2 "" H 2900 4050 50  0001 C CNN
F 3 "" H 2900 4050 50  0001 C CNN
	1    2900 4050
	1    0    0    -1  
$EndComp
$Comp
L Device:C_Small C1
U 1 1 5EDCD729
P 2900 4550
AR Path="/5EDCD729" Ref="C1"  Part="1" 
AR Path="/5C3D0F24/5EDCD729" Ref="C?"  Part="1" 
AR Path="/5EDC6366/5EDCD729" Ref="C?"  Part="1" 
F 0 "C1" H 2992 4596 50  0000 L CNN
F 1 "10uF" H 2992 4505 50  0000 L CNN
F 2 "Capacitor_SMD:C_0603_1608Metric" H 2900 4550 50  0001 C CNN
F 3 "~" H 2900 4550 50  0001 C CNN
	1    2900 4550
	1    0    0    -1  
$EndComp
Wire Wire Line
	2900 4700 2900 4650
$Comp
L Device:R_Small_US R1
U 1 1 5EDCE02E
P 4650 4600
F 0 "R1" H 4718 4646 50  0000 L CNN
F 1 "820mOhm" H 4718 4555 50  0000 L CNN
F 2 "Resistor_SMD:R_0603_1608Metric" H 4650 4600 50  0001 C CNN
F 3 "ERJ-3RQFR82V" H 4650 4600 50  0001 C CNN
	1    4650 4600
	1    0    0    -1  
$EndComp
Wire Wire Line
	4450 4300 4650 4300
Wire Wire Line
	4650 4300 4650 4500
$Comp
L power:GND #PWR0109
U 1 1 5EDCE5B1
P 2900 4700
F 0 "#PWR0109" H 2900 4450 50  0001 C CNN
F 1 "GND" H 2905 4527 50  0000 C CNN
F 2 "" H 2900 4700 50  0001 C CNN
F 3 "" H 2900 4700 50  0001 C CNN
	1    2900 4700
	1    0    0    -1  
$EndComp
$Comp
L power:GND #PWR0110
U 1 1 5EDCEA75
P 4650 4700
F 0 "#PWR0110" H 4650 4450 50  0001 C CNN
F 1 "GND" H 4655 4527 50  0000 C CNN
F 2 "" H 4650 4700 50  0001 C CNN
F 3 "" H 4650 4700 50  0001 C CNN
	1    4650 4700
	1    0    0    -1  
$EndComp
$Comp
L power:GND #PWR0111
U 1 1 5EDCF4CE
P 4050 4700
F 0 "#PWR0111" H 4050 4450 50  0001 C CNN
F 1 "GND" H 4055 4527 50  0000 C CNN
F 2 "" H 4050 4700 50  0001 C CNN
F 3 "" H 4050 4700 50  0001 C CNN
	1    4050 4700
	1    0    0    -1  
$EndComp
Wire Wire Line
	4050 4500 4050 4700
Wire Wire Line
	2900 4050 2900 4100
Wire Wire Line
	3650 4100 2900 4100
Connection ~ 2900 4100
Wire Wire Line
	2900 4100 2900 4450
$Comp
L Device:C_Small C2
U 1 1 5EDD1749
P 5250 4550
AR Path="/5EDD1749" Ref="C2"  Part="1" 
AR Path="/5C3D0F24/5EDD1749" Ref="C?"  Part="1" 
AR Path="/5EDC6366/5EDD1749" Ref="C?"  Part="1" 
F 0 "C2" H 5342 4596 50  0000 L CNN
F 1 "10uF" H 5342 4505 50  0000 L CNN
F 2 "Capacitor_SMD:C_0603_1608Metric" H 5250 4550 50  0001 C CNN
F 3 "~" H 5250 4550 50  0001 C CNN
	1    5250 4550
	1    0    0    -1  
$EndComp
Wire Wire Line
	5250 4700 5250 4650
$Comp
L power:GND #PWR0112
U 1 1 5EDD1751
P 5250 4700
F 0 "#PWR0112" H 5250 4450 50  0001 C CNN
F 1 "GND" H 5255 4527 50  0000 C CNN
F 2 "" H 5250 4700 50  0001 C CNN
F 3 "" H 5250 4700 50  0001 C CNN
	1    5250 4700
	1    0    0    -1  
$EndComp
Wire Wire Line
	5250 4100 5250 4450
$Comp
L ILI9488_sym:ILI9488_Display U3
U 1 1 5F144986
P 6200 1450
F 0 "U3" H 6200 1575 50  0000 C CNN
F 1 "ILI9488_Display" H 6200 1484 50  0000 C CNN
F 2 "ilil9488_FPC:FPC_50" H 6200 1450 50  0001 C CNN
F 3 "" H 6200 1450 50  0001 C CNN
	1    6200 1450
	1    0    0    -1  
$EndComp
$Comp
L Device:L L1
U 1 1 5F145143
P 4800 4100
F 0 "L1" V 4990 4100 50  0000 C CNN
F 1 "3.3uH" V 4899 4100 50  0000 C CNN
F 2 "Inductor_SMD:L_0805_2012Metric" H 4800 4100 50  0001 C CNN
F 3 "MLZ2012M3R3HT000" H 4800 4100 50  0001 C CNN
	1    4800 4100
	0    -1   -1   0   
$EndComp
Wire Wire Line
	4950 4100 5250 4100
Wire Wire Line
	4650 4100 4450 4100
Connection ~ 4650 4300
Text GLabel 3600 4700 0    50   Input ~ 0
PWM_IN
Wire Wire Line
	3650 4300 3650 4700
Wire Wire Line
	3650 4700 3600 4700
Wire Wire Line
	4900 1550 5650 1550
Wire Wire Line
	4900 1650 5650 1650
Wire Wire Line
	5650 1750 4900 1750
Wire Wire Line
	4900 1850 5650 1850
Wire Wire Line
	5650 1950 4900 1950
Wire Wire Line
	4900 2050 5650 2050
Wire Wire Line
	5650 2150 4900 2150
Wire Wire Line
	4900 2250 5650 2250
Wire Wire Line
	5650 2350 4900 2350
$Comp
L power:VDD #PWR0113
U 1 1 5F14BE02
P 7100 3800
F 0 "#PWR0113" H 7100 3650 50  0001 C CNN
F 1 "VDD" H 7117 3973 50  0000 C CNN
F 2 "" H 7100 3800 50  0001 C CNN
F 3 "" H 7100 3800 50  0001 C CNN
	1    7100 3800
	1    0    0    -1  
$EndComp
Wire Wire Line
	6750 3800 6900 3800
Wire Wire Line
	6750 3700 6900 3700
Wire Wire Line
	6900 3700 6900 3800
Connection ~ 6900 3800
Wire Wire Line
	6900 3800 7100 3800
Wire Wire Line
	6750 3900 6900 3900
Wire Wire Line
	6900 3900 6900 3800
$Comp
L power:GND #PWR0114
U 1 1 5F1565C2
P 6900 4450
AR Path="/5F1565C2" Ref="#PWR0114"  Part="1" 
AR Path="/5C3D0F24/5F1565C2" Ref="#PWR?"  Part="1" 
AR Path="/5EDC6366/5F1565C2" Ref="#PWR?"  Part="1" 
F 0 "#PWR0114" H 6900 4200 50  0001 C CNN
F 1 "GND" H 6905 4277 50  0000 C CNN
F 2 "" H 6900 4450 50  0001 C CNN
F 3 "" H 6900 4450 50  0001 C CNN
	1    6900 4450
	1    0    0    -1  
$EndComp
Wire Wire Line
	6750 4000 6900 4000
Wire Wire Line
	6900 4000 6900 4100
Wire Wire Line
	6750 4100 6900 4100
Connection ~ 6900 4100
Wire Wire Line
	6900 4100 6900 4200
Wire Wire Line
	6750 4200 6900 4200
Connection ~ 6900 4200
Wire Wire Line
	6900 4200 6900 4300
Wire Wire Line
	6750 4300 6900 4300
Connection ~ 6900 4300
Wire Wire Line
	6900 4300 6900 4450
$Comp
L Connector_Generic:Conn_02x09_Counter_Clockwise J2
U 1 1 5F17C0CE
P 9900 1900
F 0 "J2" H 9950 2517 50  0000 C CNN
F 1 "Conn_02x09_Counter_Clockwise" H 9950 2426 50  0000 C CNN
F 2 "LCD_BreakoutConnectors:PinHeader_2x09_P2.54mm_Horizontal_Flipped" H 9900 1900 50  0001 C CNN
F 3 "~" H 9900 1900 50  0001 C CNN
	1    9900 1900
	1    0    0    -1  
$EndComp
Text GLabel 7050 3050 2    50   Output ~ 0
SDO
Wire Wire Line
	6750 3050 7050 3050
Text GLabel 7050 3150 2    50   Input ~ 0
SDA
Wire Wire Line
	6750 3150 7050 3150
Text GLabel 9600 1500 0    50   Output ~ 0
SDO
Text GLabel 9600 1600 0    50   Input ~ 0
SDA
Text GLabel 5400 3600 0    50   Output ~ 0
YD(Y+)
Text GLabel 5400 3500 0    50   Output ~ 0
XR(X+)
Text GLabel 5400 3800 0    50   Output ~ 0
YU(Y-)
Text GLabel 5400 3700 0    50   Output ~ 0
XL(X-)
Wire Wire Line
	5650 3500 5400 3500
Wire Wire Line
	5400 3600 5650 3600
Wire Wire Line
	5650 3700 5400 3700
Wire Wire Line
	5400 3800 5650 3800
Text GLabel 9650 2300 0    50   Output ~ 0
YD(Y+)
Text GLabel 9650 2200 0    50   Output ~ 0
XR(X+)
Text GLabel 10300 2200 2    50   Output ~ 0
YU(Y-)
Text GLabel 10300 2300 2    50   Output ~ 0
XL(X-)
Wire Wire Line
	10200 2200 10300 2200
Wire Wire Line
	10200 2300 10300 2300
$Comp
L DS04-254-2-03BK-SMT:DS04-254-2-03BK-SMT S1
U 1 1 5F1FEF19
P 8750 2550
F 0 "S1" V 8700 2150 50  0000 C CNN
F 1 "DS04-254-2-03BK-SMT" V 8550 1800 50  0000 C CNN
F 2 "DS04-254-2-03BK-SMT:SW_DS04-254-2-03BK-SMT" H 8750 2550 50  0001 L BNN
F 3 "4.86 mm" H 8750 2550 50  0001 L BNN
F 4 "CUI Inc." H 8750 2550 50  0001 L BNN "Field4"
F 5 "V0.0" H 8750 2550 50  0001 L BNN "Field5"
F 6 "Manufacturer Recommendations" H 8750 2550 50  0001 L BNN "Field6"
	1    8750 2550
	0    -1   -1   0   
$EndComp
$Comp
L power:VDD #PWR0115
U 1 1 5F22AFA9
P 8750 2100
F 0 "#PWR0115" H 8750 1950 50  0001 C CNN
F 1 "VDD" H 8767 2273 50  0000 C CNN
F 2 "" H 8750 2100 50  0001 C CNN
F 3 "" H 8750 2100 50  0001 C CNN
	1    8750 2100
	1    0    0    -1  
$EndComp
Text GLabel 10300 1500 2    50   Input ~ 0
PWM_IN
Wire Wire Line
	5650 4100 5250 4100
Connection ~ 5250 4100
Wire Wire Line
	4650 4300 5450 4300
Wire Wire Line
	5650 4200 5450 4200
Wire Wire Line
	5450 4200 5450 4300
Connection ~ 5450 4300
Wire Wire Line
	5450 4300 5650 4300
NoConn ~ 7500 5600
NoConn ~ 7500 5700
$Comp
L PowerReg_ili9488:MIC5305-3.0 U4
U 1 1 5F1863D3
P 9100 5100
F 0 "U4" H 9100 5067 50  0000 C CNN
F 1 "MIC5305-3.0" H 9100 4976 50  0000 C CNN
F 2 "Package_TO_SOT_SMD:TSOT-23-5" H 9200 5100 50  0001 C CNN
F 3 "" H 9200 5100 50  0001 C CNN
	1    9100 5100
	1    0    0    -1  
$EndComp
Connection ~ 8500 5400
Wire Wire Line
	8500 5400 8700 5400
Wire Wire Line
	7850 5400 8300 5400
Wire Wire Line
	7500 5800 7500 6150
Wire Wire Line
	7500 6150 7200 6150
Connection ~ 7200 6150
Wire Wire Line
	7500 5400 7850 5400
Connection ~ 7850 5400
$Comp
L power:GND #PWR0102
U 1 1 5F251A22
P 10300 1700
F 0 "#PWR0102" H 10300 1450 50  0001 C CNN
F 1 "GND" V 10300 1500 50  0000 C CNN
F 2 "" H 10300 1700 50  0001 C CNN
F 3 "" H 10300 1700 50  0001 C CNN
	1    10300 1700
	0    -1   -1   0   
$EndComp
Wire Wire Line
	10200 1500 10300 1500
Wire Wire Line
	8750 2250 8750 2200
Wire Wire Line
	9650 2200 9700 2200
Wire Wire Line
	9700 2300 9650 2300
$Comp
L ILI_Connectors:ILI9488_Data U2
U 1 1 5F158A5E
P 4500 1450
F 0 "U2" H 4500 1575 50  0000 C CNN
F 1 "ILI9488_Data" H 4500 1484 50  0000 C CNN
F 2 "LCD_BreakoutConnectors:PinHeader_2x09_P2.54mm_Horizontal_Flipped" H 4550 1450 50  0001 C CNN
F 3 "" H 4550 1450 50  0001 C CNN
	1    4500 1450
	1    0    0    -1  
$EndComp
Wire Wire Line
	5650 2450 4100 2450
Wire Wire Line
	4100 2450 4100 2350
Wire Wire Line
	5650 2550 4050 2550
Wire Wire Line
	4050 2550 4050 2250
Wire Wire Line
	4050 2250 4100 2250
Wire Wire Line
	5650 2650 4000 2650
Wire Wire Line
	4000 2650 4000 2150
Wire Wire Line
	4000 2150 4100 2150
Wire Wire Line
	5650 2750 3950 2750
Wire Wire Line
	3950 2750 3950 2050
Wire Wire Line
	3950 2050 4100 2050
Wire Wire Line
	5650 2850 3900 2850
Wire Wire Line
	3900 2850 3900 1950
Wire Wire Line
	3900 1950 4100 1950
Wire Wire Line
	5650 2950 3850 2950
Wire Wire Line
	3850 2950 3850 1850
Wire Wire Line
	3850 1850 4100 1850
Wire Wire Line
	5650 3050 3800 3050
Wire Wire Line
	3800 3050 3800 1750
Wire Wire Line
	3800 1750 4100 1750
Wire Wire Line
	5650 3150 3750 3150
Wire Wire Line
	3750 3150 3750 1650
Wire Wire Line
	3750 1650 4100 1650
Wire Wire Line
	5650 3250 3700 3250
Wire Wire Line
	3700 3250 3700 1550
Wire Wire Line
	3700 1550 4100 1550
Text GLabel 7100 1050 2    50   Input ~ 0
RESET
Wire Wire Line
	6750 1550 6850 1550
Text GLabel 10300 2000 2    50   Input ~ 0
RESET
Wire Wire Line
	10200 2000 10300 2000
Wire Wire Line
	10200 1700 10300 1700
Wire Wire Line
	10300 1700 10300 1800
Wire Wire Line
	10300 1800 10200 1800
Connection ~ 10300 1700
Wire Wire Line
	8950 2250 8950 2200
Wire Wire Line
	8950 2200 8750 2200
Connection ~ 8750 2200
Wire Wire Line
	8750 2200 8750 2100
Wire Wire Line
	8550 2750 8550 2700
Wire Wire Line
	8550 2200 8750 2200
$Comp
L power:VDD #PWR0116
U 1 1 5F1DC90F
P 10350 1900
F 0 "#PWR0116" H 10350 1750 50  0001 C CNN
F 1 "VDD" V 10350 2100 50  0000 C CNN
F 2 "" H 10350 1900 50  0001 C CNN
F 3 "" H 10350 1900 50  0001 C CNN
	1    10350 1900
	0    1    1    0   
$EndComp
Wire Wire Line
	10200 1900 10350 1900
Wire Wire Line
	10200 1600 10300 1600
Wire Wire Line
	10300 1600 10300 1700
$Comp
L Device:R_Small_US R4
U 1 1 5F21E16D
P 7100 1550
F 0 "R4" H 7168 1596 50  0000 L CNN
F 1 "10k" H 6900 1500 50  0000 L CNN
F 2 "Resistor_SMD:R_0402_1005Metric" H 7100 1550 50  0001 C CNN
F 3 "~" H 7100 1550 50  0001 C CNN
	1    7100 1550
	1    0    0    -1  
$EndComp
$Comp
L Device:R_Small_US R3
U 1 1 5F225656
P 6900 1150
F 0 "R3" H 6968 1196 50  0000 L CNN
F 1 "10k" H 6968 1105 50  0000 L CNN
F 2 "Resistor_SMD:R_0402_1005Metric" H 6900 1150 50  0001 C CNN
F 3 "~" H 6900 1150 50  0001 C CNN
	1    6900 1150
	1    0    0    -1  
$EndComp
$Comp
L Device:R_Small_US R2
U 1 1 5F22CB40
P 6900 950
F 0 "R2" H 6968 996 50  0000 L CNN
F 1 "10k" H 6968 905 50  0000 L CNN
F 2 "Resistor_SMD:R_0402_1005Metric" H 6900 950 50  0001 C CNN
F 3 "~" H 6900 950 50  0001 C CNN
	1    6900 950 
	1    0    0    -1  
$EndComp
Wire Wire Line
	6850 1050 6900 1050
Connection ~ 6900 1050
Wire Wire Line
	6900 1050 7100 1050
Text GLabel 7150 1650 2    50   Input ~ 0
RD
Wire Wire Line
	7150 1650 7100 1650
Wire Wire Line
	6850 1050 6850 1550
$Comp
L Device:R_Small_US R5
U 1 1 5F27E518
P 7450 1650
F 0 "R5" H 7500 1750 50  0000 L CNN
F 1 "10k" H 7500 1650 50  0000 L CNN
F 2 "Resistor_SMD:R_0402_1005Metric" H 7450 1650 50  0001 C CNN
F 3 "~" H 7450 1650 50  0001 C CNN
	1    7450 1650
	1    0    0    -1  
$EndComp
Text GLabel 7500 1750 2    50   Input ~ 0
WRX(SCL)
Wire Wire Line
	7500 1750 7450 1750
$Comp
L Device:R_Small_US R6
U 1 1 5F28CC09
P 8050 1750
F 0 "R6" H 8100 1850 50  0000 L CNN
F 1 "10k" H 8100 1750 50  0000 L CNN
F 2 "Resistor_SMD:R_0402_1005Metric" H 8050 1750 50  0001 C CNN
F 3 "~" H 8050 1750 50  0001 C CNN
	1    8050 1750
	1    0    0    -1  
$EndComp
Text GLabel 8100 1850 2    50   Input ~ 0
D_CX
Wire Wire Line
	8100 1850 8050 1850
Wire Wire Line
	7100 1650 6750 1650
Connection ~ 7100 1650
Wire Wire Line
	7450 1750 6750 1750
Connection ~ 7450 1750
Wire Wire Line
	8050 1850 6750 1850
Connection ~ 8050 1850
$Comp
L Device:R_Small_US R7
U 1 1 5F2E0213
P 8400 1850
F 0 "R7" H 8450 1950 50  0000 L CNN
F 1 "10k" H 8450 1850 50  0000 L CNN
F 2 "Resistor_SMD:R_0402_1005Metric" H 8400 1850 50  0001 C CNN
F 3 "~" H 8400 1850 50  0001 C CNN
	1    8400 1850
	1    0    0    -1  
$EndComp
Text GLabel 8450 1950 2    50   Input ~ 0
CS
Wire Wire Line
	8450 1950 8400 1950
Connection ~ 8400 1950
Wire Wire Line
	6750 1950 8400 1950
Text GLabel 9600 1700 0    50   Output ~ 0
RD
Text GLabel 9600 1800 0    50   Output ~ 0
WRX(SCL)
Text GLabel 9600 1900 0    50   Output ~ 0
D_CX
Text GLabel 9600 2000 0    50   Output ~ 0
CS
Text GLabel 9600 2100 0    50   Input ~ 0
TE
Wire Wire Line
	9600 1700 9700 1700
Wire Wire Line
	9700 1800 9600 1800
Wire Wire Line
	9600 1900 9700 1900
Wire Wire Line
	9700 2000 9600 2000
Wire Wire Line
	9600 2100 9700 2100
Text GLabel 6850 2050 2    50   Output ~ 0
TE
Wire Wire Line
	6750 2050 6850 2050
$Comp
L power:GND #PWR0117
U 1 1 5F34E148
P 6900 1250
AR Path="/5F34E148" Ref="#PWR0117"  Part="1" 
AR Path="/5C3D0F24/5F34E148" Ref="#PWR?"  Part="1" 
AR Path="/5EDC6366/5F34E148" Ref="#PWR?"  Part="1" 
F 0 "#PWR0117" H 6900 1000 50  0001 C CNN
F 1 "GND" H 6905 1077 50  0000 C CNN
F 2 "" H 6900 1250 50  0001 C CNN
F 3 "" H 6900 1250 50  0001 C CNN
	1    6900 1250
	1    0    0    -1  
$EndComp
$Comp
L power:VDD #PWR0118
U 1 1 5F355B3C
P 6900 850
F 0 "#PWR0118" H 6900 700 50  0001 C CNN
F 1 "VDD" H 6917 1023 50  0000 C CNN
F 2 "" H 6900 850 50  0001 C CNN
F 3 "" H 6900 850 50  0001 C CNN
	1    6900 850 
	1    0    0    -1  
$EndComp
$Comp
L power:VDD #PWR0119
U 1 1 5F35D39F
P 7100 1450
F 0 "#PWR0119" H 7100 1300 50  0001 C CNN
F 1 "VDD" H 7117 1623 50  0000 C CNN
F 2 "" H 7100 1450 50  0001 C CNN
F 3 "" H 7100 1450 50  0001 C CNN
	1    7100 1450
	1    0    0    -1  
$EndComp
$Comp
L power:VDD #PWR0120
U 1 1 5F364C02
P 7450 1550
F 0 "#PWR0120" H 7450 1400 50  0001 C CNN
F 1 "VDD" H 7467 1723 50  0000 C CNN
F 2 "" H 7450 1550 50  0001 C CNN
F 3 "" H 7450 1550 50  0001 C CNN
	1    7450 1550
	1    0    0    -1  
$EndComp
$Comp
L power:VDD #PWR0121
U 1 1 5F36C465
P 8050 1650
F 0 "#PWR0121" H 8050 1500 50  0001 C CNN
F 1 "VDD" H 8067 1823 50  0000 C CNN
F 2 "" H 8050 1650 50  0001 C CNN
F 3 "" H 8050 1650 50  0001 C CNN
	1    8050 1650
	1    0    0    -1  
$EndComp
$Comp
L power:VDD #PWR0122
U 1 1 5F373CC8
P 8400 1750
F 0 "#PWR0122" H 8400 1600 50  0001 C CNN
F 1 "VDD" H 8417 1923 50  0000 C CNN
F 2 "" H 8400 1750 50  0001 C CNN
F 3 "" H 8400 1750 50  0001 C CNN
	1    8400 1750
	1    0    0    -1  
$EndComp
$Comp
L power:GND #PWR02
U 1 1 5F37B5E0
P 7000 2750
AR Path="/5F37B5E0" Ref="#PWR02"  Part="1" 
AR Path="/5C3D0F24/5F37B5E0" Ref="#PWR?"  Part="1" 
AR Path="/5EDC6366/5F37B5E0" Ref="#PWR?"  Part="1" 
F 0 "#PWR02" H 7000 2500 50  0001 C CNN
F 1 "GND" V 7050 2600 50  0000 C CNN
F 2 "" H 7000 2750 50  0001 C CNN
F 3 "" H 7000 2750 50  0001 C CNN
	1    7000 2750
	0    -1   -1   0   
$EndComp
Wire Wire Line
	9600 1500 9700 1500
Wire Wire Line
	9700 1600 9600 1600
$Comp
L power:VDD #PWR0123
U 1 1 5F42A107
P 10350 2100
F 0 "#PWR0123" H 10350 1950 50  0001 C CNN
F 1 "VDD" V 10350 2300 50  0000 C CNN
F 2 "" H 10350 2100 50  0001 C CNN
F 3 "" H 10350 2100 50  0001 C CNN
	1    10350 2100
	0    1    1    0   
$EndComp
Wire Wire Line
	10200 2100 10350 2100
$Comp
L LED_LDO:PAM2804 U1
U 1 1 5F5EAC04
P 4050 3900
F 0 "U1" H 4050 3967 50  0000 C CNN
F 1 "PAM2804" H 4050 3876 50  0000 C CNN
F 2 "Package_TO_SOT_SMD:TSOT-23-5" H 4050 3900 50  0001 C CNN
F 3 "" H 4050 3900 50  0001 C CNN
	1    4050 3900
	1    0    0    -1  
$EndComp
Wire Wire Line
	6750 2850 7000 2850
Wire Wire Line
	7000 2850 7000 2750
Wire Wire Line
	6750 2750 7000 2750
Connection ~ 7000 2750
Wire Wire Line
	6750 2650 7000 2650
Wire Wire Line
	7000 2650 7000 2750
Wire Wire Line
	6750 2550 7000 2550
Wire Wire Line
	7000 2550 7000 2650
Connection ~ 7000 2650
Text Notes 750  1050 0    89   ~ 0
TE pin should be tied to\nGND when not in use.
$Comp
L Device:R_Small_US R9
U 1 1 6266C4A8
P 8650 3050
F 0 "R9" H 8650 3200 50  0000 L CNN
F 1 "10k" H 8750 3050 50  0000 L CNN
F 2 "Resistor_SMD:R_0402_1005Metric" H 8650 3050 50  0001 C CNN
F 3 "~" H 8650 3050 50  0001 C CNN
	1    8650 3050
	1    0    0    -1  
$EndComp
$Comp
L Device:R_Small_US R8
U 1 1 6267D219
P 8400 3050
F 0 "R8" H 8450 3150 50  0000 L CNN
F 1 "10k" H 8450 3050 50  0000 L CNN
F 2 "Resistor_SMD:R_0402_1005Metric" H 8400 3050 50  0001 C CNN
F 3 "~" H 8400 3050 50  0001 C CNN
	1    8400 3050
	-1   0    0    -1  
$EndComp
$Comp
L Device:R_Small_US R10
U 1 1 62685490
P 9000 3050
F 0 "R10" H 9050 3150 50  0000 L CNN
F 1 "10k" H 9050 3050 50  0000 L CNN
F 2 "Resistor_SMD:R_0402_1005Metric" H 9000 3050 50  0001 C CNN
F 3 "~" H 9000 3050 50  0001 C CNN
	1    9000 3050
	1    0    0    -1  
$EndComp
Wire Wire Line
	8550 2850 8550 2950
Wire Wire Line
	8550 2950 8400 2950
Wire Wire Line
	8750 2850 8750 2950
Wire Wire Line
	8750 2950 8650 2950
Wire Wire Line
	8950 2850 8950 2950
Wire Wire Line
	8950 2950 9000 2950
$Comp
L power:GND #PWR0124
U 1 1 626C4B26
P 8400 3200
F 0 "#PWR0124" H 8400 2950 50  0001 C CNN
F 1 "GND" H 8405 3027 50  0000 C CNN
F 2 "" H 8400 3200 50  0001 C CNN
F 3 "" H 8400 3200 50  0001 C CNN
	1    8400 3200
	1    0    0    -1  
$EndComp
$Comp
L power:GND #PWR0125
U 1 1 626C54A0
P 8650 3200
F 0 "#PWR0125" H 8650 2950 50  0001 C CNN
F 1 "GND" H 8655 3027 50  0000 C CNN
F 2 "" H 8650 3200 50  0001 C CNN
F 3 "" H 8650 3200 50  0001 C CNN
	1    8650 3200
	1    0    0    -1  
$EndComp
$Comp
L power:GND #PWR0126
U 1 1 626CDB42
P 9000 3200
F 0 "#PWR0126" H 9000 2950 50  0001 C CNN
F 1 "GND" H 9005 3027 50  0000 C CNN
F 2 "" H 9000 3200 50  0001 C CNN
F 3 "" H 9000 3200 50  0001 C CNN
	1    9000 3200
	1    0    0    -1  
$EndComp
Wire Wire Line
	8400 3150 8400 3200
Wire Wire Line
	8650 3150 8650 3200
Wire Wire Line
	9000 3150 9000 3200
Wire Wire Line
	8550 2950 8550 3450
Wire Wire Line
	8550 3450 8200 3450
Wire Wire Line
	8200 3450 8200 2200
Wire Wire Line
	6750 2200 8200 2200
Connection ~ 8550 2950
Wire Wire Line
	8750 2950 8750 3550
Wire Wire Line
	8750 3550 8100 3550
Wire Wire Line
	8100 3550 8100 2300
Connection ~ 8750 2950
Wire Wire Line
	6750 2300 8100 2300
Wire Wire Line
	8950 2950 8950 3650
Wire Wire Line
	8950 3650 8000 3650
Wire Wire Line
	8000 3650 8000 2400
Wire Wire Line
	8000 2400 6750 2400
Connection ~ 8950 2950
Wire Wire Line
	8550 2250 8550 2200
$EndSCHEMATC
